{
  "project_info": {
    "project_number": "900445024772",
    "firebase_url": "https://caronauesc.firebaseio.com",
    "project_id": "caronauesc",
    "storage_bucket": "caronauesc.appspot.com"
  },
  "client": [
    {
      "client_info": {
        "mobilesdk_app_id": "1:900445024772:android:6c37b4681f54deb1",
        "android_client_info": {
          "package_name": "com.teco.caronauesc"
        }
      },
      "oauth_client": [
        {
          "client_id": "900445024772-i61ujjs27ort293jq64asnpobu7cv11e.apps.googleusercontent.com",
          "client_type": 1,
          "android_info": {
            "package_name": "com.teco.caronauesc",
            "certificate_hash": "79d052e43ffa84a33d5f0c43c9065d9b4fb69175"
          }
        },
        {
          "client_id": "900445024772-b9p1gr9jureolpvks29drkgg70afioqn.apps.googleusercontent.com",
          "client_type": 3
        },
        {
          "client_id": "900445024772-b9p1gr9jureolpvks29drkgg70afioqn.apps.googleusercontent.com",
          "client_type": 3
        }
      ],
      "api_key": [
        {
          "current_key": "AIzaSyCCpa8171Ce9xDOHxW3A2yXAUHvkGT7Nfw"
        }
      ],
      "services": {
        "analytics_service": {
          "status": 1
        },
        "appinvite_service": {
          "status": 2,
          "other_platform_oauth_client": [
            {
              "client_id": "900445024772-b9p1gr9jureolpvks29drkgg70afioqn.apps.googleusercontent.com",
              "client_type": 3
            }
          ]
        },
        "ads_service": {
          "status": 2
        }
      }
    }
  ],
  "configuration_version": "1"
}